{
   "Version":"2012-10-17",
   "Statement":[
      {
         "Effect":"Allow",
         "Principal":{
            "Federated":"arn:aws:iam::<accountId>:oidc-provider/oidc.eks.us-east-1.amazonaws.com/id/<oidcId>"
         },
         "Action":"sts:AssumeRoleWithWebIdentity",
         "Condition":{
            "StringEquals":{
               "oidc.eks.us-east-1.amazonaws.com/id/<oidcId>:aud":"sts.amazonaws.com",
               "oidc.eks.us-east-1.amazonaws.com/id/<oidcId>:sub":"system:serviceaccount:kube-system:aws-load-balancer-controller"
            }
         }
      }
   ]
}
PF2

{
   "Version":"2012-10-17",
   "Statement":[
      {
         "Effect":"Allow",
         "Principal":{
            "Federated":"arn:aws:iam::641921721037:oidc-provider/oidc.eks.us-east-1.amazonaws.com/id/5B966E84C3B2743A6557A0091074A713"
         },
         "Action":"sts:AssumeRoleWithWebIdentity",
         "Condition":{
            "StringEquals":{
               "oidc.eks.eu-west-3.amazonaws.com/id/5B966E84C3B2743A6557A0091074A713:aud":"sts.amazonaws.com",
               "oidc.eks.eu-west-3.amazonaws.com/id/5B966E84C3B2743A6557A0091074A713:sub":"system:serviceaccount:kube-system:aws-load-balancer-controller"
            }
         }
      }
   ]
}

---
PF1

{
   "Version":"2012-10-17",
   "Statement":[
      {
         "Effect":"Allow",
         "Principal":{
            "Federated":"arn:aws:iam::641921721037:oidc-provider/oidc.eks.eu-north-1.amazonaws.com/id/FC8C105BCB494E3B5748CBE5F9DFC555"
         },
         "Action":"sts:AssumeRoleWithWebIdentity",
         "Condition":{
            "StringEquals":{
               "oidc.eks.eu-north-1.amazonaws.com/id/FC8C105BCB494E3B5748CBE5F9DFC555:aud":"sts.amazonaws.com",
               "oidc.eks.eu-north-1.amazonaws.com/id/FC8C105BCB494E3B5748CBE5F9DFC555:sub":"system:serviceaccount:kube-system:aws-load-balancer-controller"
            }
         }
      }
   ]
}


